{
  "name": "userfront-monitor",
  "type": "project:application",
  "platform": {
    "id": "web",
    "displayName": "Web",
    "output": "scripts"
  },
  "transpiler": {
    "id": "typescript",
    "displayName": "TypeScript",
    "fileExtension": ".ts",
    "dtsSource": [
      "./typings/**/*.d.ts",
      "./custom_typings/**/*.d.ts"
    ],
    "source": "src/**/*.ts"
  },
  "markupProcessor": {
    "id": "none",
    "displayName": "None",
    "fileExtension": ".html",
    "source": "src/**/*.html"
  },
  "cssProcessor": {
    "id": "less",
    "displayName": "Less",
    "fileExtension": ".less",
    "source": "src/**/*.less"
  },
  "editor": {
    "id": "vscode",
    "displayName": "Visual Studio Code"
  },
  "unitTestRunner": {
    "id": "karma",
    "displayName": "Karma",
    "source": "test/unit/**/*.ts"
  },
  "paths": {
    "root": "src",
    "resources": "src/resources",
    "elements": "src/resources/elements",
    "attributes": "src/resources/attributes",
    "valueConverters": "src/resources/value-converters",
    "bindingBehaviors": "src/resources/binding-behaviors"
  },
  "testFramework": {
    "id": "jasmine",
    "displayName": "Jasmine"
  },
  "build": {
    "targets": [
      {
        "id": "web",
        "displayName": "Web",
        "output": "scripts"
      }
    ],
    "loader": {
      "type": "require",
      "configTarget": "vendor-bundle.js",
      "includeBundleMetadataInConfig": "auto",
      "plugins": [
        {
          "name": "text",
          "extensions": [
            ".html",
            ".css"
          ],
          "stub": true
        }
      ]
    },
    "options": {
      "minify": "stage & prod",
      "sourcemaps": "dev & stage"
    },
    "bundles": [
      {
        "name": "app-bundle.js",
        "source": [
          "[**/*.js]",
          "**/*.{css,html}"
        ]
      },
      {
        "name": "vendor-bundle.js",
        "prepend": [
          "node_modules/bluebird/js/browser/bluebird.core.js",
          "scripts/require.js"
        ],
        "dependencies": [
          "aurelia-binding",
          "aurelia-bootstrapper",
          "aurelia-dependency-injection",
          "aurelia-animator-css",
          "aurelia-event-aggregator",
          "aurelia-framework",
          "aurelia-history",
          "aurelia-history-browser",
          "aurelia-loader",
          "aurelia-loader-default",
          "aurelia-logging",
          "aurelia-logging-console",
          "aurelia-metadata",
          "aurelia-pal",
          "aurelia-pal-browser",
          "aurelia-path",
          "aurelia-polyfills",
          "aurelia-route-recognizer",
          "aurelia-router",
          "aurelia-task-queue",
          "aurelia-templating",
          "aurelia-templating-binding",
          "aurelia-fetch-client",
          {
            "name": "jquery",
            "path": "../node_modules/jquery/dist",
            "main": "jquery.min",
            "exports": ["$","jQuery"]
          },          
          {
            "name": "aurelia-grid",
            "path": "../node_modules/aurelia-grid/dist",
            "main": "index",
            "resources": [
              "aurelia-grid.css",
              "grid.html"
            ]
          },          
          {
            "name": "aurelia-validation",
            "path": "../node_modules/aurelia-validation/dist/amd",
            "main": "aurelia-validation"
          },          
          {
            "name": "aurelia-dialog",
            "path": "../node_modules/aurelia-dialog/dist/amd",
            "main": "aurelia-dialog"
          },          
          {
            "name":"i18next",
            "path": "../node_modules/i18next/dist/commonjs",
            "main": "i18next"
          },
          {
            "name": "aurelia-i18n",
            "path": "../node_modules/aurelia-i18n/dist/amd",
            "main": "aurelia-i18n"
          },
          {
            "name": "i18next-xhr-backend",
            "path": "../node_modules/i18next-xhr-backend/dist/commonjs",
            "main": "index"            
          },
          {
            "name": "aurelia-auth",
            "path": "../node_modules/aurelia-auth/dist/amd",
            "main": "aurelia-auth"
          },
          {
            "name": "text",
            "path": "../scripts/text"
          },
          {
            "name": "aurelia-templating-resources",
            "path": "../node_modules/aurelia-templating-resources/dist/amd",
            "main": "aurelia-templating-resources"
          },
          {
            "name": "aurelia-templating-router",
            "path": "../node_modules/aurelia-templating-router/dist/amd",
            "main": "aurelia-templating-router"
          },
          {
            "name": "aurelia-testing",
            "path": "../node_modules/aurelia-testing/dist/amd",
            "main": "aurelia-testing",
            "env": "dev"
          },
          {
            "name": "bootstrap",
            "path": "../node_modules/bootstrap/dist",
            "main": "js/bootstrap.min",
            "deps": ["jquery"],
            "resources": [
              "css/bootstrap.css"
            ]
          },
          {
            "name": "toastr",
            "path": "../node_modules/toastr",
            "main": "toastr",
            "deps": ["jquery"],
            "resources": [
              "build/toastr.min.css"
            ]
          },
          {
            "name": "admin-lte",
            "path": "../node_modules/admin-lte/dist",
            "main": "js/app.min",
            "deps": ["jquery"],
            "resources": [
                  "css/AdminLTE.min.css",
                  "css/skins/_all-skins.min.css",
                  "css/skins/skin-blue.min.css",
                  "css/skins/skin-blue-light.min.css",
                  "css/skins/skin-black.min.css",
                  "css/skins/skin-black-light.min.css",
                  "css/skins/skin-red.min.css",
                  "css/skins/skin-red-light.min.css",
                  "css/skins/skin-yellow.min.css",
                  "css/skins/skin-yellow-light.min.css",
                  "css/skins/skin-green.min.css",
                  "css/skins/skin-green-light.min.css",
                  "css/skins/skin-purple.min.css",
                  "css/skins/skin-purple-light.min.css"
                ]            
          }
         ]
     }
    ]
  }
}